D:\Programming\ProjectII\6.3.4.4\src\main\java\controller\DrawingLoop.java
D:\Programming\ProjectII\6.3.4.4\src\main\java\controller\GameLoop.java
D:\Programming\ProjectII\6.3.4.4\src\main\java\controller\JarLauncher.java
D:\Programming\ProjectII\6.3.4.4\src\main\java\model\AnimatedSprite.java
D:\Programming\ProjectII\6.3.4.4\src\main\java\model\Character.java
D:\Programming\ProjectII\6.3.4.4\src\main\java\view\Platform.java
D:\Programming\ProjectII\6.3.4.4\src\main\java\model\Keys.java
D:\Programming\ProjectII\6.3.4.4\src\main\java\view\Score.java
D:\Programming\ProjectII\6.3.4.4\src\main\java\controller\Launcher.java
D:\Programming\ProjectII\6.3.4.4\src\main\java\model\ball.java
